<?xml version="1.0" encoding="UTF-8" standalone="no"?>
<svg
   xmlns:dc="http://purl.org/dc/elements/1.1/"
   xmlns:cc="http://creativecommons.org/ns#"
   xmlns:rdf="http://www.w3.org/1999/02/22-rdf-syntax-ns#"
   xmlns:svg="http://www.w3.org/2000/svg"
   xmlns="http://www.w3.org/2000/svg"
   xmlns:sodipodi="http://sodipodi.sourceforge.net/DTD/sodipodi-0.dtd"
   xmlns:inkscape="http://www.inkscape.org/namespaces/inkscape"
   width="40"
   height="47.999992"
   viewBox="0 0 40 47.999992"
   class="feather feather-map-pin"
   version="1.1"
   id="svg6"
   sodipodi:docname="marker.svg"
   inkscape:version="0.92.5 (0.92.5+68)"
   style="fill:none;stroke:currentColor;stroke-width:2;stroke-linecap:round;stroke-linejoin:round">
  <metadata
     id="metadata12">
    <rdf:RDF>
      <cc:Work
         rdf:about="">
        <dc:format>image/svg+xml</dc:format>
        <dc:type
           rdf:resource="http://purl.org/dc/dcmitype/StillImage" />
        <dc:title />
      </cc:Work>
    </rdf:RDF>
  </metadata>
  <defs
     id="defs10" />
  <sodipodi:namedview
     pagecolor="#ffffff"
     bordercolor="#666666"
     borderopacity="1"
     objecttolerance="10"
     gridtolerance="10"
     guidetolerance="10"
     inkscape:pageopacity="0"
     inkscape:pageshadow="2"
     inkscape:window-width="1920"
     inkscape:window-height="1053"
     id="namedview8"
     showgrid="false"
     inkscape:zoom="6.9532167"
     inkscape:cx="6.5031722"
     inkscape:cy="23.283186"
     inkscape:window-x="0"
     inkscape:window-y="0"
     inkscape:window-maximized="1"
     inkscape:current-layer="svg6"
     fit-margin-top="0"
     fit-margin-left="0"
     fit-margin-right="0"
     fit-margin-bottom="0"
     inkscape:snap-global="true"
     inkscape:snap-page="true"
     inkscape:object-nodes="true"
     inkscape:snap-midpoints="true"
     showguides="true"
     inkscape:guide-bbox="true">
    <sodipodi:guide
       position="66.970563,57.958786"
       orientation="1,0"
       id="guide820"
       inkscape:locked="false"
       inkscape:label=""
       inkscape:color="rgb(0,0,255)" />
  </sodipodi:namedview>
  <path
     style="fill:#0b0709;fill-opacity:1;stroke:none;stroke-width:4.36441088;stroke-opacity:1"
     d="M 19.542969 0 C 8.9444722 0.23662646 0.35942731 8.908597 0.359375 19.634766 C 0.359375 34.910203 20 48.003906 20 48.003906 C 20 48.003906 39.640625 34.910203 39.640625 19.634766 C 39.640574 9.012072 31.194305 0.31511787 20.576172 0.00390625 C 20.230315 -0.0062306247 19.884856 -0.0076331117 19.542969 0 z M 20 5.1425781 A 11.793103 11.793103 0 0 1 31.792969 16.935547 A 11.793103 11.793103 0 0 1 20 28.728516 A 11.793103 11.793103 0 0 1 8.2070312 16.935547 A 11.793103 11.793103 0 0 1 20 5.1425781 z "
     id="path2" />
</svg>
